{
	"info": {
		"_postman_id": "97b3a187-0178-4787-9d36-cd873bf0b37f",
		"name": "{{phuong0}}",
		"schema": "https://schema.getpostman.com/json/collection/v2.1.0/collection.json"
	},
	"item": [
		{
			"name": "auth",
			"item": [
				{
					"name": "login",
					"event": [
						{
							"listen": "test",
							"script": {
								"exec": [
									"var jsonData = JSON.parse(responseBody); \r",
									"postman.setEnvironmentVariable(\"token\", jsonData['tokens']['access']['token']);"
								],
								"type": "text/javascript"
							}
						}
					],
					"request": {
						"method": "POST",
						"header": [],
						"body": {
							"mode": "raw",
							"raw": "{\r\n   \"email\": \"admin@gmail.com\", \"password\": \"admin@123\"\r\n}",
							"options": {
								"raw": {
									"language": "json"
								}
							}
						},
						"url": {
							"raw": "{{url}}/v1/auth/login",
							"host": [
								"{{url}}"
							],
							"path": [
								"v1",
								"auth",
								"login"
							]
						}
					},
					"response": []
				},
				{
					"name": "register",
					"event": [
						{
							"listen": "test",
							"script": {
								"exec": [
									""
								],
								"type": "text/javascript"
							}
						}
					],
					"request": {
						"method": "POST",
						"header": [],
						"body": {
							"mode": "raw",
							"raw": "{\r\n   \"email\": \"admin@gmail.com\", \"password\": \"admin@123\", \"fullname\": \"Lê Hồng Phương\"\r\n}",
							"options": {
								"raw": {
									"language": "json"
								}
							}
						},
						"url": {
							"raw": "{{url}}/v1/auth/register",
							"host": [
								"{{url}}"
							],
							"path": [
								"v1",
								"auth",
								"register"
							]
						}
					},
					"response": []
				},
				{
					"name": "Upload file",
					"event": [
						{
							"listen": "test",
							"script": {
								"exec": [
									""
								],
								"type": "text/javascript"
							}
						}
					],
					"protocolProfileBehavior": {
						"disabledSystemHeaders": {
							"content-type": true
						}
					},
					"request": {
						"auth": {
							"type": "bearer",
							"bearer": [
								{
									"key": "token",
									"value": "{{token}}",
									"type": "string"
								}
							]
						},
						"method": "POST",
						"header": [
							{
								"key": "Content-Type",
								"value": "multipart/form-data; boundary=999999",
								"type": "text"
							}
						],
						"body": {
							"mode": "formdata",
							"formdata": [
								{
									"key": "image",
									"type": "file",
									"src": "/C:/Users/PhuongLH/Desktop/top100 fptsoftware.jpg"
								}
							]
						},
						"url": {
							"raw": "{{url}}/v1/uploads",
							"host": [
								"{{url}}"
							],
							"path": [
								"v1",
								"uploads"
							]
						}
					},
					"response": []
				}
			]
		},
		{
			"name": "users",
			"item": [
				{
					"name": "find",
					"request": {
						"auth": {
							"type": "bearer",
							"bearer": [
								{
									"key": "token",
									"value": "{{token}}",
									"type": "string"
								}
							]
						},
						"method": "GET",
						"header": [],
						"url": {
							"raw": "{{url}}/v1/users",
							"host": [
								"{{url}}"
							],
							"path": [
								"v1",
								"users"
							]
						}
					},
					"response": []
				},
				{
					"name": "create",
					"request": {
						"auth": {
							"type": "bearer",
							"bearer": [
								{
									"key": "token",
									"value": "{{token}}",
									"type": "string"
								}
							]
						},
						"method": "POST",
						"header": [],
						"body": {
							"mode": "raw",
							"raw": "{\r\n    \"idUser\": \"614748250c57f118c4a40689\",\r\n    \"idRole\": null,\r\n    \"idOptionalRole\": null,\r\n    \"fullname\": \"anhyeuem\",\r\n    \"username\": \"null\",\r\n    \"password\": \"anhyeuem\",\r\n    \"sex\": \"anhyeuem\",\r\n    \"avatar\": null,\r\n    \"born\": \"anhyeuem\",\r\n    \"phone\": \"anhyeuem\",\r\n    \"email\": null,\r\n    \"address\": \"anhyeuem\",\r\n    \"citizenIdentification\": \"anhyeuem\",\r\n    \"status\": 1,\r\n    \"addressCurrent\": null,\r\n    \"paymentProofImage\": null,\r\n    \"imageCitizenIdentification\": \"https://izisoft.s3.ap-southeast-1.amazonaws.com/p08yamamoto/1632729024051_image_picker7411229531620887029.jpg\",\r\n    \"imageCitizenIdentification1\": \"https://izisoft.s3.ap-southeast-1.amazonaws.com/p08yamamoto/1632729024807_image_picker7411229531620887029.jpg\"\r\n}",
							"options": {
								"raw": {
									"language": "json"
								}
							}
						},
						"url": {
							"raw": "{{url}}/v1/users",
							"host": [
								"{{url}}"
							],
							"path": [
								"v1",
								"users"
							]
						}
					},
					"response": []
				},
				{
					"name": "update",
					"request": {
						"auth": {
							"type": "bearer",
							"bearer": [
								{
									"key": "token",
									"value": "{{token}}",
									"type": "string"
								}
							]
						},
						"method": "PUT",
						"header": [],
						"body": {
							"mode": "raw",
							"raw": "{\r\n    \"isEmailVerified\": false,\r\n    \"email\": \"phuonglh3@gmail.com\",\r\n    \"fullname\": \"Lê Hồng Phương\",\r\n    \"id\": \"613f5370cf39e4159ca63651\"\r\n}",
							"options": {
								"raw": {
									"language": "json"
								}
							}
						},
						"url": {
							"raw": "{{url}}/v1/users",
							"host": [
								"{{url}}"
							],
							"path": [
								"v1",
								"users"
							]
						}
					},
					"response": []
				},
				{
					"name": "delete",
					"request": {
						"auth": {
							"type": "bearer",
							"bearer": [
								{
									"key": "token",
									"value": "{{token}}",
									"type": "string"
								}
							]
						},
						"method": "DELETE",
						"header": [],
						"body": {
							"mode": "raw",
							"raw": "{  \r\n    \"id\": \"613f5443d67d320584c63b46\"\r\n}",
							"options": {
								"raw": {
									"language": "json"
								}
							}
						},
						"url": {
							"raw": "{{url}}/v1/users",
							"host": [
								"{{url}}"
							],
							"path": [
								"v1",
								"users"
							]
						}
					},
					"response": []
				},
				{
					"name": "paginate",
					"request": {
						"auth": {
							"type": "bearer",
							"bearer": [
								{
									"key": "token",
									"value": "{{token}}",
									"type": "string"
								}
							]
						},
						"method": "GET",
						"header": [],
						"url": {
							"raw": "{{url}}/v1/users/paginate?page=1&limit=5",
							"host": [
								"{{url}}"
							],
							"path": [
								"v1",
								"users",
								"paginate"
							],
							"query": [
								{
									"key": "page",
									"value": "1"
								},
								{
									"key": "limit",
									"value": "5"
								}
							]
						}
					},
					"response": []
				},
				{
					"name": "find by id",
					"request": {
						"auth": {
							"type": "bearer",
							"bearer": [
								{
									"key": "token",
									"value": "{{token}}",
									"type": "string"
								}
							]
						},
						"method": "GET",
						"header": [],
						"url": {
							"raw": "{{url}}/v1/users/613de0184010712468a77406",
							"host": [
								"{{url}}"
							],
							"path": [
								"v1",
								"users",
								"613de0184010712468a77406"
							]
						}
					},
					"response": []
				}
			]
		},
{{phuong1}}
	]
}