		{
			"name": "{{phuong0}}s",
			"item": [
				{
					"name": "find",
					"request": {
						"auth": {
							"type": "bearer",
							"bearer": [
								{
									"key": "token",
									"value": "{{token}}",
									"type": "string"
								}
							]
						},
						"method": "GET",
						"header": [],
						"url": {
							"raw": "{{url}}/v1/{{phuong0}}s",
							"host": [
								"{{url}}"
							],
							"path": [
								"v1",
								"{{phuong0}}s"
							]
						}
					},
					"response": []
				},
				{
					"name": "create",
					"request": {
						"auth": {
							"type": "bearer",
							"bearer": [
								{
									"key": "token",
									"value": "{{token}}",
									"type": "string"
								}
							]
						},
						"method": "POST",
						"header": [],
						"body": {
							"mode": "raw",
							"raw": "{{{phuong1}}\r\n}",
							"options": {
								"raw": {
									"language": "json"
								}
							}
						},
						"url": {
							"raw": "{{url}}/v1/{{phuong0}}s",
							"host": [
								"{{url}}"
							],
							"path": [
								"v1",
								"{{phuong0}}s"
							]
						}
					},
					"response": []
				},
				{
					"name": "update",
					"request": {
						"auth": {
							"type": "bearer",
							"bearer": [
								{
									"key": "token",
									"value": "{{token}}",
									"type": "string"
								}
							]
						},
						"method": "PUT",
						"header": [],
						"body": {
							"mode": "raw",
							"raw": "{{{phuong2}}\r\n}",
							"options": {
								"raw": {
									"language": "json"
								}
							}
						},
						"url": {
							"raw": "{{url}}/v1/{{phuong0}}s",
							"host": [
								"{{url}}"
							],
							"path": [
								"v1",
								"{{phuong0}}s"
							]
						}
					},
					"response": []
				},
				{
					"name": "delete",
					"request": {
						"auth": {
							"type": "bearer",
							"bearer": [
								{
									"key": "token",
									"value": "{{token}}",
									"type": "string"
								}
							]
						},
						"method": "DELETE",
						"header": [],
						"url": {
							"raw": "{{url}}/v1/{{phuong0}}s/6141bb418dd1ca36f1ce5980",
							"host": [
								"{{url}}"
							],
							"path": [
								"v1",
								"{{phuong0}}s",
								"6141bb418dd1ca36f1ce5980"
							]
						}
					},
					"response": []
				},
				{
					"name": "paginate",
					"request": {
						"auth": {
							"type": "bearer",
							"bearer": [
								{
									"key": "token",
									"value": "{{token}}",
									"type": "string"
								}
							]
						},
						"method": "GET",
						"header": [],
						"url": {
							"raw": "{{url}}/v1/{{phuong0}}s/paginate?page=2&limit=5",
							"host": [
								"{{url}}"
							],
							"path": [
								"v1",
								"{{phuong0}}s",
								"paginate"
							],
							"query": [
								{
									"key": "page",
									"value": "2"
								},
								{
									"key": "limit",
									"value": "5"
								}
							]
						}
					},
					"response": []
				},
				{
					"name": "find by id",
					"request": {
						"auth": {
							"type": "bearer",
							"bearer": [
								{
									"key": "token",
									"value": "{{token}}",
									"type": "string"
								}
							]
						},
						"method": "GET",
						"header": [],
						"url": {
							"raw": "{{url}}/v1/{{phuong0}}s/613de0184010712468a77406",
							"host": [
								"{{url}}"
							],
							"path": [
								"v1",
								"{{phuong0}}s",
								"613de0184010712468a77406"
							]
						}
					},
					"response": []
				}
			]
		}